{
    "version": "0.1.0",
    "summary": "",
    "repository": "https://github.com/user/project.git",
    "license": "UNLICENSED",
    "source-directories": [
        "src"
    ],
    "exposed-modules": [],
    "dependencies": {
        "NoRedInk/elm-decode-pipeline": "3.0.0 <= v < 4.0.0",
        "alpacaaa/elm-date-distance": "1.0.3 <= v < 2.0.0",
        "elm-community/array-extra": "1.0.2 <= v < 2.0.0",
        "elm-lang/core": "5.1.1 <= v < 6.0.0",
        "elm-lang/html": "2.0.0 <= v < 3.0.0",
        "elm-lang/http": "1.0.0 <= v < 2.0.0"
    },
    "elm-version": "0.18.0 <= v < 0.19.0"
}
